-16 -24 -64 32 -40 776
8 -8 -56 -64 -40 -24 -16 720
-56 -32 -64 -64 -32 704
-40 16 -32 -32 -8 -64 -16 -16 -48 -24 -64 544
-8 -56 -24 880
8 -40 -8 -64 -48 -40 736
992
-40 -32 904
-48 -32 -24 -16 840
24 -64 888
-64 -16 896
-24 -24 -64 -24 824
992
-24 -40 -24 880
992
-64 -8 40 -64 -48 -32 688
-32 -32 -64 64 -48 -16 688
-24 -40 -56 -64 -56 712
-56 928
-40 -16 -64 -64 776
-8 -8 -16 -16 -64 -56 -32 -64 664
-48 -56 32 -16 -56 744
-64 920
-32 -24 -32 -16 -56 -24 760
