27

8
-1
-9
-8
-10
15

-4
2
2
-5
5
-5

-5
5
4
-3
4
-10

9
11
1
-4
-2
-9

14
5
-10
-2
1
13

-10
7
5
-4
-3
2

-1
-9
-10
3
-8
-10
3

-8
-2
8
10
13
-3

5
-10
1
-10
8
-10
-9

-5
-1
-4
-8
-2
-9

10
-10
13
-1
-7
7

-5
8
5
7
-4
13

-6
-4
1
1
-10
13
2

15
-4
-3
5
9
-5
5

2
13
3
14
8
12

-5
-1
-2
15
-6
-3
2

9
11
1
11
-4
13
8

4
-8
-2
-7
11
5
9

-7
-5
11
-7
-1
13

-3
-7
6
-4
-9
-1
1

13
-9
12
-9
11
-6

-6
-7
2
3
-5
-3

-10
-5
-8
14
-3
-10
-1

-2
-1
-6
10
15
9
-4

-9
7
-9
-4
-2
5
-7

7
9
2
-1
6
-10
3

14
-9
1
-5
3
8
