-64 -16 -8 -24 848
-40 -80 -88 -96 -80 568
-8 -72 -72 -112 696
-8 -32 -32 -24 864
64 -72 -64 -104 -80 568
120 -8 -56 -48 728
-32 -96 -56 784
-56 -32 72 -56 744
-120 -104 8 -40 -96 584
-72 -24 880
-112 -24 -80 -104 640
992
-64 -104 808
-80 -32 -40 -72 -96 632
-32 -104 -120 -120 -48 528
-32 952
-88 -32 856
-32 -56 -96 -48 -96 624
-96 -56 -72 -48 688
992
-48 -24 -32 -96 -80 672
-72 912
-120 -8 -8 -16 -64 736
72 -32 872
-120 -64 792
-112 -64 -120 672
-64 -8 904
-40 944
-56 -88 -56 768
