72 -64 -32 -80 -40 -64 -64 -72 -24 -40 -16 336
48 -24 -80 -24 -16 -40 -64 -48 -80 -56 -64 -56 -56 232
-24 -8 -8 -16 -16 -64 -24 -16 752
-24 -80 -40 824
-8 -32 8 -56 -72 -64 -56 -16 -56 -56 -24 -56 -80 -64 -80 -16 120
-56 928
-8 -8 -16 -8 8 -56 -80 -16 -16 -72 -64 -56 488
24 -80 872
-16 72 -32 -72 -56 -56 640
992
-32 -8 -24 -32 -80 -32 -48 -48 -56 -16 536
64 -64 -48 -16 -48 -16 -48 -32 -56 -48 -80 384
-40 -56 16 -64 -80 -48 -32 600
48 -24 -64 -24 -48 -80 -72 -80 488
-24 -72 -64 -56 744
-8 -8 960
-64 920
40 -48 -24 -16 -80 -8 -56 -48 608
40 -8 -16 -24 -24 -16 -40 -72 -48 -72 -80 -56 400
-24 -64 -8 -72 -64 -32 -64 -40 560
