-104 880
-80 -24 48 -40 -56 704
248 -48 -24 648
-120 -56 800
-56 -56 -56 800
32 -16 928
-120 -40 816
-32 -80 -96 -88 664
-64 -64 -64 776
-56 -32 -80 800
-56 -32 -80 800
-56 -32 -80 800
112 -16 848
-64 920
992
-104 -32 -16 816
-72 912
-72 912
-104 880
-64 -48 864
-24 -8 -96 840
992
-16 968
-112 -56 -120 72 -24 568
-32 8 -88 840
-112 872
-48 936
-40 -96 120 -96 608
-104 -16 -72 80 -24 656
-40 -16 -16 -112 776
