20

-7
13
11
2
3
-2
-8
14
10
-5

-3
12
-3
8
4
2
-3
1
4
-8

-3
11
-8
-1
-9
-8
-4
3
-9
-8
-3
2

14
-7
13
-10
11
-8
14
-4
-8
-4
11
-8
2
-3
-7
-1
-3
6
9

1
2
3
4
5
6
7
-1
-1
-1
-1
-1
-1
-1

-4
10
-1
14
8
-5
8

-5
-5
-6
-2
14
-8
-1

-2
10
-3
-10
13
-4
3

-10
-8
-5
10
15
9

6
4
9
-8
1
15
-6
4
-8
-8
-10
-4
-5
-2

4
-7
-7
12
7
-9
7
5

13
-10
-6
-2
10
-9
-10

-10
9
2
3
12
13
15

10
10
3
-1
10
2
-1
5
5
-1
2
8
3
6
-1
3
2
-1
10
7
8
7
-1
7

3
10
5

4
3
-1
-1
3
3
-1
1

2
-1
1
3
2
-1
4
-1
1

9
-9
-4
4
4
4
5

13
6
2
2
3
4
5

2
9
5
-7
1
1
1
6